^C:\COCOS2D-X\PROJECTS\BONUSWHEEL\PROJ.WIN32\DEBUG.WIN32\APPDELEGATE.OBJ|C:\COCOS2D-X\PROJECTS\BONUSWHEEL\PROJ.WIN32\DEBUG.WIN32\GAME.RES|C:\COCOS2D-X\PROJECTS\BONUSWHEEL\PROJ.WIN32\DEBUG.WIN32\HELLOWORLDSCENE.OBJ|C:\COCOS2D-X\PROJECTS\BONUSWHEEL\PROJ.WIN32\DEBUG.WIN32\LIBCOCOS2D.LIB|C:\COCOS2D-X\PROJECTS\BONUSWHEEL\PROJ.WIN32\DEBUG.WIN32\LIBSPINE.LIB|C:\COCOS2D-X\PROJECTS\BONUSWHEEL\PROJ.WIN32\DEBUG.WIN32\MAIN.OBJ
C:\COCOS2D-X\PROJECTS\BONUSWHEEL\PROJ.WIN32\DEBUG.WIN32\BONUSWHEEL.EXE
C:\COCOS2D-X\PROJECTS\BONUSWHEEL\PROJ.WIN32\DEBUG.WIN32\BONUSWHEEL.ILK
C:\COCOS2D-X\PROJECTS\BONUSWHEEL\PROJ.WIN32\DEBUG.WIN32\BONUSWHEEL.PDB
